{
  "root": "libs/authentication",
  "sourceRoot": "libs/authentication/src",
  "projectType": "library",
  "targets": {
    "build": {
      "executor": "@nrwl/web:rollup",
      "outputs": ["{options.outputPath}"],
      "options": {
        "outputPath": "dist/libs/authentication",
        "tsConfig": "libs/authentication/tsconfig.lib.json",
        "project": "libs/authentication/package.json",
        "entryFile": "libs/authentication/src/index.ts",
        "external": ["react", "react-dom"],
        "rollupConfig": "@nrwl/react/plugins/bundle-rollup",
        "assets": [
          {
            "glob": "libs/authentication/README.md",
            "input": ".",
            "output": "."
          }
        ]
      }
    },
    "lint": {
      "executor": "@nrwl/linter:eslint",
      "options": {
        "lintFilePatterns": ["libs/authentication/**/*.{ts,tsx,js,jsx}"]
      }
    },
    "test": {
      "executor": "@nrwl/jest:jest",
      "options": {
        "jestConfig": "libs/authentication/jest.config.js",
        "passWithNoTests": true,
        "codeCoverage": true
      },
      "outputs": ["coverage/libs/authentication"]
    },
    "typecheck": {
      "executor": "@nrwl/workspace:run-commands",
      "options": {
        "command": "tsc -p libs/authentication/tsconfig.lib.json"
      }
    }
  },
  "tags": ["scope:shared"]
}
