{
  "preset": {
    "presetType": "mapPreset",
    "presetId": "mapPreset-1",
    "presetName": "Layer manager preset",
    "services": [
      {
        "name": "KNMI Radar",
        "url": "https://geoservices.knmi.nl/adagucserver?dataset=RADAR&",
        "id": "knmi-radar"
      },
      {
        "name": "FMI",
        "url": "https://openwms.fmi.fi/geoserver/wms?",
        "id": "fmi"
      },
      {
        "name": "MET Norway",
        "url": "https://public-wms.met.no/verportal/verportal.map?",
        "id": "met-no"
      },
      {
        "name": "KNMI Harmonie",
        "url": "https://geoservices.knmi.nl/adagucserver?dataset=HARM_N25",
        "id": "knmi-harmonie"
      },
      {
        "name": "KNMI Observations",
        "url": "https://geoservices.knmi.nl/adagucserver?dataset=OBS",
        "id": "knmi-obs"
      },
      {
        "name": "DWD",
        "url": "https://maps.dwd.de/geoserver/ows?",
        "id": "dwd"
      },
      {
        "name": "EUMETSAT",
        "url": "https://view.eumetsat.int/geoserver/wms?service=WMS&version=1.3.0&request=GetCapabilities",
        "id": "eumetsat"
      },
      {
        "name": "ECMWF",
        "url": "https://eccharts.ecmwf.int/wms/?token=public",
        "id": "ecmwf"
      },
      {
        "name": "NOAA Tropical Cyclones",
        "url": "https://nowcoast.noaa.gov/arcgis/services/nowcoast/wwa_meteocean_tropicalcyclones_trackintensityfcsts_time/MapServer/WMSServer?request=GetCapabilities&service=WMS",
        "id": "noaatropicalcyclones"
      }
    ],
    "layers": [
      {
        "id": "base-layer-1",
        "name": "WorldMap_Light_Grey_Canvas",
        "type": "twms",
        "layerType": "baseLayer"
      },
      {
        "id": "base-layer-2",
        "name": "OpenStreetMap_NL",
        "type": "twms",
        "layerType": "baseLayer",
        "enabled": true
      },
      {
        "id": "base-layer-3",
        "service": "https://services.arcgisonline.com/ArcGIS/rest/services/Canvas/World_Light_Gray_Base/MapServer/tile/",
        "name": "arcGisCanvas",
        "type": "twms",
        "layerType": "baseLayer",
        "enabled": true
      },
      {
        "service": "https://geoservices.knmi.nl/wms?DATASET=baselayers&",
        "name": "countryborders",
        "id": "countryborders",
        "format": "image/png",
        "enabled": true,
        "layerType": "overLayer"
      }
    ]
  }
}
