[
  {
    "id": "emptyMap",
    "title": "Empty Map",
    "views": {
      "byId": {
        "emptyMap": {
          "title": "Empty Map",
          "componentType": "Map",
          "initialProps": {
            "mapPreset": {
              "layers": [],
              "proj": {
                "srs": "EPSG:3857",
                "bbox": {
                  "left": -450651.2255879827,
                  "bottom": 6393842.957153378,
                  "right": 1428345.8183648037,
                  "top": 7342085.640241
                }
              },
              "shouldAutoUpdate": false,
              "shouldShowLayerManager": true
            },
            "syncGroupsIds": []
          }
        }
      },
      "allIds": ["emptyMap"]
    },
    "mosaicNode": "emptyMap"
  },
  {
    "id": "radarSingleMapScreenConfig",
    "title": "Radar",
    "views": {
      "byId": {
        "singleRadar": {
          "title": "Radar view",
          "componentType": "Map",
          "initialProps": {
            "mapPreset": {
              "layers": [
                {
                  "service": "https://adaguc-server-geoweb.geoweb.knmi.cloud/adagucserver?dataset=RADAR",
                  "name": "precipitation",
                  "format": "image/png",
                  "enabled": true,
                  "style": "radar/nearest",
                  "layerType": "mapLayer"
                }
              ],
              "proj": {
                "srs": "EPSG:3857",
                "bbox": {
                  "left": -450651.2255879827,
                  "bottom": 6393842.957153378,
                  "right": 1428345.8183648037,
                  "top": 7342085.640241
                }
              },
              "shouldAutoUpdate": true
            }
          }
        }
      },
      "allIds": ["singleRadar"]
    },
    "mosaicNode": "singleRadar"
  },
  {
    "id": "harmonieWindPressureSingleMapScreenConfig",
    "title": "Harmonie N25 wind and pressure",
    "views": {
      "byId": {
        "screenHarmWindPressure": {
          "title": "Harmonie N25 wind and pressure",
          "componentType": "Map",
          "initialProps": {
            "mapPreset": {
              "layers": [
                {
                  "service": "https://adaguc-server-geoweb.geoweb.knmi.cloud/adagucserver?dataset=HARM_N25",
                  "name": "air_pressure_at_sea_level",
                  "layerType": "mapLayer",
                  "enabled": true
                },
                {
                  "service": "https://adaguc-server-geoweb.geoweb.knmi.cloud/adagucserver?dataset=HARM_N25",
                  "name": "wind__at_10m",
                  "style": "Windbarbs_mps/barbshaded",
                  "layerType": "mapLayer",
                  "enabled": true
                }
              ],
              "proj": {
                "srs": "EPSG:3857",
                "bbox": {
                  "left": -450651.2255879827,
                  "bottom": 6393842.957153378,
                  "right": 1428345.8183648037,
                  "top": 7342085.640241
                }
              }
            }
          }
        }
      },
      "allIds": ["screenHarmWindPressure"]
    },
    "mosaicNode": "screenHarmWindPressure"
  },
  {
    "id": "harmonieTemperatureSingleMapScreenConfig",
    "title": "Harmonie N25 temperature",
    "views": {
      "byId": {
        "screenHarmTemp": {
          "title": "Harmonie N25 temperature",
          "componentType": "Map",
          "initialProps": {
            "mapPreset": {
              "layers": [
                {
                  "service": "https://adaguc-server-geoweb.geoweb.knmi.cloud/adagucserver?dataset=HARM_N25",
                  "name": "air_temperature__at_2m",
                  "layerType": "mapLayer",
                  "enabled": true
                }
              ],
              "proj": {
                "srs": "EPSG:3857",
                "bbox": {
                  "left": -450651.2255879827,
                  "bottom": 6393842.957153378,
                  "right": 1428345.8183648037,
                  "top": 7342085.640241
                }
              }
            }
          }
        }
      },
      "allIds": ["screenHarmTemp"]
    },
    "mosaicNode": "screenHarmTemp"
  },
  {
    "id": "RadarHarmoniePrecipSingleMapScreenConfig",
    "title": "Radar and Harmonie N25 precipitation",
    "views": {
      "byId": {
        "screenRadarHarmPrecip": {
          "title": "Radar and Harmonie N25 precipitation",
          "componentType": "Map",
          "initialProps": {
            "mapPreset": {
              "layers": [
                {
                  "service": "https://adaguc-server-geoweb.geoweb.knmi.cloud/adagucserver?dataset=HARM_N25",
                  "name": "air_pressure_at_sea_level",
                  "layerType": "mapLayer",
                  "enabled": true
                },
                {
                  "service": "https://adaguc-server-geoweb.geoweb.knmi.cloud/adagucserver?dataset=RADAR",
                  "name": "precipitation",
                  "format": "image/png",
                  "enabled": true,
                  "style": "radar/nearest",
                  "layerType": "mapLayer",
                  "id": "RadarHarmoniePrecipSingleMapScreenConfig-radar"
                },
                {
                  "service": "https://adaguc-server-geoweb.geoweb.knmi.cloud/adagucserver?dataset=HARM_N25",
                  "name": "precipitation_flux",
                  "layerType": "mapLayer",
                  "enabled": true
                }
              ],
              "proj": {
                "srs": "EPSG:3857",
                "bbox": {
                  "left": -450651.2255879827,
                  "bottom": 6393842.957153378,
                  "right": 1428345.8183648037,
                  "top": 7342085.640241
                }
              },
              "activeLayerId": "RadarHarmoniePrecipSingleMapScreenConfig-radar",
              "shouldAutoUpdate": true
            }
          }
        }
      },
      "allIds": ["screenRadarHarmPrecip"]
    },
    "mosaicNode": "screenRadarHarmPrecip"
  },
  {
    "id": "dwdWarningsSingleMapScreenConfig",
    "title": "DWD warnings",
    "views": {
      "byId": {
        "screenDWDWarnings": {
          "title": "DWD warnings",
          "componentType": "Map",
          "initialProps": {
            "mapPreset": {
              "layers": [
                {
                  "service": "https://adaguc-server-geoweb.geoweb.knmi.cloud/adagucserver?dataset=LGT",
                  "name": "LGT_NL23_LAM_05M",
                  "style": "LGTKNMI_16/point",
                  "layerType": "mapLayer",
                  "enabled": true
                },
                {
                  "service": "https://adaguc-server-geoweb.geoweb.knmi.cloud/adagucserver?dataset=NOWCASTMIX",
                  "name": "alert_code",
                  "layerType": "mapLayer",
                  "enabled": true,
                  "id": "dwdWarningsSingleMapScreenConfig-severe-radar"
                }
              ],
              "proj": {
                "srs": "EPSG:3857",
                "bbox": {
                  "left": -2944114.561016602,
                  "bottom": 4832354.065036914,
                  "right": 4487478.920774458,
                  "top": 8478670.68736671
                }
              },
              "activeLayerId": "dwdWarningsSingleMapScreenConfig-severe-radar",
              "shouldAutoUpdate": true
            }
          }
        }
      },
      "allIds": ["screenDWDWarnings"]
    },
    "mosaicNode": "screenDWDWarnings"
  },
  {
    "id": "renewalWarningsSingleMapScreenConfig",
    "title": "Renewal warnings convection",
    "views": {
      "byId": {
        "screenRenewalWarnings": {
          "title": "Renewal warnings convection",
          "componentType": "Map",
          "initialProps": {
            "mapPreset": {
              "layers": [
                {
                  "service": "https://adaguc-server-geoweb.geoweb.knmi.cloud/adagucserver?dataset=OVL",
                  "name": "provincies",
                  "layerType": "mapLayer",
                  "style": "black/polyline",
                  "enabled": false
                },
                {
                  "service": "https://adaguc-server-geoweb.geoweb.knmi.cloud/adagucserver?dataset=OVL",
                  "name": "nwblightR",
                  "layerType": "mapLayer",
                  "style": "red/polyline"
                },
                {
                  "service": "https://adaguc-server-geoweb.geoweb.knmi.cloud/adagucserver?dataset=cell-tracking",
                  "name": "boundaries",
                  "layerType": "mapLayer",
                  "enabled": true,
                  "id": "renewal-warning-rader"
                },
                {
                  "service": "https://adaguc-server-geoweb.geoweb.knmi.cloud/adagucserver?dataset=cell-tracking",
                  "name": "inner_parts",
                  "layerType": "mapLayer",
                  "enabled": false,
                  "style": "polygon_innerparts_coloured/shaded",
                  "opacity": 0.4
                },
                {
                  "service": "https://adaguc-server-geoweb.geoweb.knmi.cloud/adagucserver?dataset=cell-tracking",
                  "name": "inner_parts",
                  "layerType": "mapLayer",
                  "enabled": true,
                  "style": "polygon_innerparts_neutral/shaded",
                  "opacity": 0.4
                },
                {
                  "service": "https://adaguc-server-geoweb.geoweb.knmi.cloud/adagucserver?dataset=cell-tracking",
                  "name": "MESH",
                  "layerType": "mapLayer",
                  "enabled": false
                },
                {
                  "service": "https://adaguc-server-geoweb.geoweb.knmi.cloud/adagucserver?dataset=cell-tracking",
                  "name": "Zmax",
                  "layerType": "mapLayer",
                  "enabled": true,
                  "style": "nearest"
                },
                {
                  "service": "https://adaguc-server-geoweb.geoweb.knmi.cloud/adagucserver?dataset=cell-tracking",
                  "name": "ZmaxTrack",
                  "layerType": "mapLayer",
                  "enabled": false
                }
              ],
              "proj": {
                "srs": "EPSG:3857",
                "bbox": {
                  "left": -450651.2255879827,
                  "bottom": 6393842.957153378,
                  "right": 1428345.8183648037,
                  "top": 7342085.640241
                }
              },
              "activeLayerId": "renewal-warning-rader",
              "shouldAutoUpdate": true
            }
          }
        }
      },
      "allIds": ["screenRenewalWarnings"]
    },
    "mosaicNode": "screenRenewalWarnings"
  },
  {
    "id": "screenConfigA",
    "title": "Radar and observations",
    "views": {
      "byId": {
        "radar": {
          "title": "Radar view",
          "componentType": "Map",
          "initialProps": {
            "mapPreset": {
              "layers": [
                {
                  "service": "https://adaguc-server-geoweb.geoweb.knmi.cloud/adagucserver?dataset=RADAR",
                  "name": "precipitation",
                  "format": "image/png",
                  "enabled": true,
                  "style": "radar/nearest",
                  "layerType": "mapLayer"
                }
              ],
              "proj": {
                "srs": "EPSG:3857",
                "bbox": {
                  "left": -450651.2255879827,
                  "bottom": 6393842.957153378,
                  "right": 1428345.8183648037,
                  "top": 7342085.640241
                }
              },
              "shouldAutoUpdate": true
            },
            "syncGroupsIds": ["Area_radarTemp", "Time_radarTemp"]
          }
        },
        "temp": {
          "title": "Temperature observations",
          "componentType": "Map",
          "initialProps": {
            "mapPreset": {
              "layers": [
                {
                  "service": "https://adaguc-server-geoweb.geoweb.knmi.cloud/adagucserver?dataset=OBS",
                  "name": "10M/ta",
                  "style": "temperaturealldisc/point",
                  "layerType": "mapLayer",
                  "enabled": true
                }
              ],
              "proj": {
                "srs": "EPSG:3857",
                "bbox": {
                  "left": -450651.2255879827,
                  "bottom": 6393842.957153378,
                  "right": 1428345.8183648037,
                  "top": 7342085.640241
                }
              },
              "shouldAutoUpdate": true
            },
            "syncGroupsIds": ["Area_radarTemp", "Time_radarTemp"]
          }
        }
      },
      "allIds": ["radar", "temp"]
    },
    "viewType": "multiWindow",
    "syncGroups": [
      { "id": "Area_radarTemp", "type": "SYNCGROUPS_TYPE_SETBBOX" },
      { "id": "Time_radarTemp", "type": "SYNCGROUPS_TYPE_SETTIME" }
    ],
    "mosaicNode": { "direction": "row", "first": "radar", "second": "temp" }
  },
  {
    "id": "screenConfigObsModel",
    "title": "Observations and model data",
    "views": {
      "byId": {
        "screenObsModel": {
          "title": "Observations model data",
          "componentType": "MultiMap",
          "initialProps": {
            "mapPreset": [
              {
                "layers": [
                  {
                    "service": "https://geodata.nationaalgeoregister.nl/cbsgebiedsindelingen/wms?request=GetCapabilities&service=wms",
                    "name": "cbsgebiedsindelingen:cbs_veiligheidsregio_2020_labelpoint",
                    "style": "CBS_Label",
                    "enabled": false,
                    "layerType": "mapLayer"
                  },
                  {
                    "service": "https://geodata.nationaalgeoregister.nl/cbsgebiedsindelingen/wms?request=GetCapabilities&service=wms",
                    "name": "cbsgebiedsindelingen:cbs_veiligheidsregio_2020_gegeneraliseerd",
                    "style": "CBS_Gebiedsindeling",
                    "enabled": false,
                    "layerType": "mapLayer"
                  },
                  {
                    "service": "https://adaguc-server-geoweb.geoweb.knmi.cloud/adagucserver?dataset=OBS",
                    "name": "10M/weathercodesymbol",
                    "layerType": "mapLayer",
                    "enabled": true,
                    "style": "Transparent"
                  },
                  {
                    "service": "https://adaguc-server-geoweb.geoweb.knmi.cloud/adagucserver?dataset=OBS",
                    "name": "10M/pg",
                    "layerType": "mapLayer",
                    "enabled": true,
                    "style": "precipitation"
                  },
                  {
                    "service": "https://adaguc-server-geoweb.geoweb.knmi.cloud/adagucserver?dataset=OBS",
                    "name": "10M/rg",
                    "layerType": "mapLayer",
                    "enabled": true,
                    "style": "precipitation"
                  },
                  {
                    "service": "https://adaguc-server-geoweb.geoweb.knmi.cloud/adagucserver?dataset=RADAR",
                    "name": "precipitation",
                    "format": "image/png",
                    "enabled": true,
                    "style": "radar/nearest",
                    "layerType": "mapLayer",
                    "id": "ObsModPrecip-radar-layer"
                  },
                  {
                    "service": "https://adaguc-server-geoweb.geoweb.knmi.cloud/adagucserver?dataset=cell-tracking",
                    "name": "Zmax",
                    "layerType": "mapLayer",
                    "enabled": true,
                    "style": "nearest",
                    "opacity": 0.7
                  },
                  {
                    "service": "https://adaguc-server-geoweb.geoweb.knmi.cloud/adagucserver?dataset=cell-tracking",
                    "name": "boundaries",
                    "layerType": "mapLayer",
                    "enabled": true,
                    "style": "polygon_boundaries_black/polyline",
                    "opacity": 0.7
                  },
                  {
                    "service": "https://adaguc-server-geoweb.geoweb.knmi.cloud/adagucserver?dataset=cell-tracking",
                    "name": "MESH",
                    "layerType": "mapLayer",
                    "enabled": false,
                    "style": "Nearest",
                    "opacity": 0.7
                  },
                  {
                    "service": "https://adaguc-server-geoweb.geoweb.knmi.cloud/adagucserver?dataset=cell-tracking",
                    "name": "ZmaxTrack",
                    "layerType": "mapLayer",
                    "enabled": false,
                    "style": "dBZ>40, nearest",
                    "opacity": 0.7
                  },
                  {
                    "service": "https://adaguc-server-geoweb.geoweb.knmi.cloud/adagucserver?dataset=cell-tracking",
                    "name": "inner_parts",
                    "layerType": "mapLayer",
                    "enabled": false,
                    "style": "polygon_innerparts_coloured/shaded",
                    "opacity": 0.7
                  },
                  {
                    "service": "https://adaguc-server-geoweb.geoweb.knmi.cloud/adagucserver?dataset=HARM_N25",
                    "name": "precipitation_flux",
                    "layerType": "mapLayer",
                    "enabled": true,
                    "style": "Precipitation (wow) shaded + contours",
                    "opacity": 0.7
                  },
                  {
                    "id": "base-layer-2",
                    "name": "OpenStreetMap_NL",
                    "type": "twms",
                    "layerType": "baseLayer",
                    "enabled": true
                  }
                ],
                "activeLayerId": "ObsModPrecip-radar-layer",

                "proj": {
                  "srs": "EPSG:3857",
                  "bbox": {
                    "left": -450651.2255879827,
                    "bottom": 6393842.957153378,
                    "right": 1428345.8183648037,
                    "top": 7342085.640241
                  }
                }
              },
              {
                "layers": [
                  {
                    "service": "https://geodata.nationaalgeoregister.nl/cbsgebiedsindelingen/wms?request=GetCapabilities&service=wms",
                    "name": "cbsgebiedsindelingen:cbs_veiligheidsregio_2020_labelpoint",
                    "style": "CBS_Label",
                    "enabled": false,
                    "layerType": "mapLayer"
                  },
                  {
                    "service": "https://geodata.nationaalgeoregister.nl/cbsgebiedsindelingen/wms?request=GetCapabilities&service=wms",
                    "name": "cbsgebiedsindelingen:cbs_veiligheidsregio_2020_gegeneraliseerd",
                    "style": "CBS_Gebiedsindeling",
                    "enabled": false,
                    "layerType": "mapLayer"
                  },
                  {
                    "service": "https://adaguc-server-geoweb.geoweb.knmi.cloud/adagucserver?dataset=OBS",
                    "name": "10M/ta",
                    "style": "Temperature",
                    "layerType": "mapLayer",
                    "enabled": true,
                    "id": "10m_ta"
                  },
                  {
                    "service": "https://adaguc-server-geoweb.geoweb.knmi.cloud/adagucserver?dataset=OBS",
                    "name": "10M/td",
                    "layerType": "mapLayer",
                    "enabled": true,
                    "style": "Temperature"
                  },
                  {
                    "service": "https://adaguc-server-geoweb.geoweb.knmi.cloud/adagucserver?dataset=HARM_N25",
                    "name": "air_temperature__at_2m",
                    "layerType": "mapLayer",
                    "enabled": true,
                    "style": "Temperature (wow) shaded + contours",
                    "opacity": 0.7
                  },
                  {
                    "service": "https://adaguc-server-geoweb.geoweb.knmi.cloud/adagucserver?dataset=HARM_N25",
                    "name": "dew_point_temperature__at_2m",
                    "layerType": "mapLayer",
                    "enabled": true,
                    "style": "Temperature (wow) shaded + contours",
                    "opacity": 0.7
                  },
                  {
                    "id": "base-layer-2",
                    "name": "OpenStreetMap_NL",
                    "type": "twms",
                    "layerType": "baseLayer",
                    "enabled": true
                  }
                ],
                "activeLayerId": "10m_ta"
              },
              {
                "layers": [
                  {
                    "service": "https://geodata.nationaalgeoregister.nl/cbsgebiedsindelingen/wms?request=GetCapabilities&service=wms",
                    "name": "cbsgebiedsindelingen:cbs_veiligheidsregio_2020_labelpoint",
                    "style": "CBS_Label",
                    "enabled": false,
                    "layerType": "mapLayer"
                  },
                  {
                    "service": "https://geodata.nationaalgeoregister.nl/cbsgebiedsindelingen/wms?request=GetCapabilities&service=wms",
                    "name": "cbsgebiedsindelingen:cbs_veiligheidsregio_2020_gegeneraliseerd",
                    "style": "CBS_Gebiedsindeling",
                    "enabled": false,
                    "layerType": "mapLayer"
                  },
                  {
                    "service": "https://adaguc-server-geoweb.geoweb.knmi.cloud/adagucserver?dataset=OBS",
                    "name": "10M/wind",
                    "layerType": "mapLayer",
                    "enabled": true,
                    "id": "10m_wind",
                    "style": "barball/barb"
                  },
                  {
                    "service": "https://adaguc-server-geoweb.geoweb.knmi.cloud/adagucserver?dataset=OBS",
                    "name": "10M/gust",
                    "layerType": "mapLayer",
                    "enabled": true
                  },
                  {
                    "service": "https://adaguc-server-geoweb.geoweb.knmi.cloud/adagucserver?dataset=HARM_N25",
                    "name": "wind__at_10m",
                    "style": "Wind barbs+sh",
                    "layerType": "mapLayer",
                    "enabled": true,
                    "opacity": 0.7
                  },
                  {
                    "service": "https://adaguc-server-geoweb.geoweb.knmi.cloud/adagucserver?dataset=HARM_N25",
                    "name": "wind_speed_of_gust__at_10m",
                    "enabled": true,
                    "layerType": "mapLayer",
                    "opacity": 0.7
                  },
                  {
                    "id": "base-layer-2",
                    "name": "OpenStreetMap_NL",
                    "type": "twms",
                    "layerType": "baseLayer",
                    "enabled": true
                  }
                ],
                "activeLayerId": "10m_wind"
              },
              {
                "layers": [
                  {
                    "service": "https://geodata.nationaalgeoregister.nl/cbsgebiedsindelingen/wms?request=GetCapabilities&service=wms",
                    "name": "cbsgebiedsindelingen:cbs_veiligheidsregio_2020_labelpoint",
                    "style": "CBS_Label",
                    "enabled": false,
                    "layerType": "mapLayer"
                  },
                  {
                    "service": "https://geodata.nationaalgeoregister.nl/cbsgebiedsindelingen/wms?request=GetCapabilities&service=wms",
                    "name": "cbsgebiedsindelingen:cbs_veiligheidsregio_2020_gegeneraliseerd",
                    "style": "CBS_Gebiedsindeling",
                    "enabled": false,
                    "layerType": "mapLayer"
                  },
                  {
                    "service": "https://adaguc-server-geoweb.geoweb.knmi.cloud/adagucserver?dataset=OBS",
                    "name": "10M/cloudlyr1",
                    "layerType": "mapLayer",
                    "enabled": true,
                    "id": "10m_cloudlyr1",
                    "style": "cloudlayer/point"
                  },
                  {
                    "service": "https://adaguc-server-geoweb.geoweb.knmi.cloud/adagucserver?dataset=OBS",
                    "name": "10M/MOR",
                    "layerType": "mapLayer",
                    "enabled": true,
                    "style": "singlevalue/point"
                  },
                  {
                    "service": "https://view.eumetsat.int/geoserver/wms?",
                    "name": "msg_fes:rgb_eview",
                    "enabled": true,
                    "id": "layerid_35",
                    "layerType": "mapLayer",
                    "style": "A simple default style",
                    "opacity": 0.8
                  },
                  {
                    "service": "https://adaguc-server-geoweb.geoweb.knmi.cloud/adagucserver?dataset=HARM_N25",
                    "name": "cloud_base_altitude",
                    "layerType": "mapLayer",
                    "enabled": true,
                    "style": "Automatic minimum and maximum"
                  },
                  {
                    "service": "https://adaguc-server-geoweb.geoweb.knmi.cloud/adagucserver?dataset=HARM_N25",
                    "name": "high_type_cloud_area_fraction",
                    "layerType": "mapLayer",
                    "enabled": true,
                    "style": "Cloud cover bilinear",
                    "opacity": 0.1
                  },
                  {
                    "service": "https://adaguc-server-geoweb.geoweb.knmi.cloud/adagucserver?dataset=HARM_N25",
                    "name": "medium_type_cloud_area_fraction",
                    "layerType": "mapLayer",
                    "enabled": true,
                    "style": "Cloud cover bilinear",
                    "opacity": 0.2
                  },
                  {
                    "service": "https://adaguc-server-geoweb.geoweb.knmi.cloud/adagucserver?dataset=HARM_N25",
                    "name": "low_type_cloud_area_fraction",
                    "layerType": "mapLayer",
                    "enabled": true,
                    "style": "Cloud cover bilinear"
                  },
                  {
                    "id": "base-layer-2",
                    "name": "OpenStreetMap_NL",
                    "type": "twms",
                    "layerType": "baseLayer",
                    "enabled": true
                  }
                ],
                "activeLayerId": "10m_cloudlyr1"
              }
            ],
            "syncGroupsIds": ["Area_screenObsModel", "Time_screenObsModel"]
          }
        }
      },
      "allIds": ["screenObsModel"]
    },
    "syncGroups": [
      { "id": "Area_screenObsModel", "type": "SYNCGROUPS_TYPE_SETBBOX" },
      { "id": "Time_screenObsModel", "type": "SYNCGROUPS_TYPE_SETTIME" }
    ],
    "viewType": "tiledWindow",
    "mosaicNode": "screenObsModel"
  },
  {
    "id": "screenConfigHarmoniePrecipMSLRefTimePresetWithMultiMapLayerManager",
    "title": "Precipitation, pressure and wind 1:all",
    "views": {
      "allIds": ["screenRefTimeAll"],
      "byId": {
        "screenRefTimeAll": {
          "title": "Harmonie precipitation, pressure and wind",
          "componentType": "ModelRunInterval",
          "initialProps": {
            "layers": [
              {
                "service": "https://adaguc-server-geoweb.geoweb.knmi.cloud/adagucserver?dataset=HARM_N25",
                "name": "air_pressure_at_sea_level",
                "layerType": "mapLayer",
                "enabled": true
              },
              {
                "service": "https://adaguc-server-geoweb.geoweb.knmi.cloud/adagucserver?dataset=HARM_N25",
                "name": "wind__at_10m",
                "layerType": "mapLayer",
                "enabled": true
              },
              {
                "service": "https://adaguc-server-geoweb.geoweb.knmi.cloud/adagucserver?dataset=HARM_N25",
                "name": "precipitation_flux",
                "layerType": "mapLayer",
                "enabled": true
              }
            ],
            "syncGroupsIds": ["areaLayerGroupA", "layerGroupA"]
          }
        }
      }
    },
    "viewType": "tiledWindow",
    "syncGroups": [
      { "id": "areaLayerGroupA", "type": "SYNCGROUPS_TYPE_SETBBOX" },
      { "id": "timeLayerGroupA", "type": "SYNCGROUPS_TYPE_SETTIME" },
      { "id": "layerGroupA", "type": "SYNCGROUPS_TYPE_SETLAYERACTIONS" }
    ],
    "mosaicNode": "screenRefTimeAll"
  },
  {
    "id": "screenConfigHarmoniePrecipMSLRefTimePresetHourly",
    "title": "Precipitation, pressure and wind 1:all hourly",
    "views": {
      "allIds": ["harmHourly"],
      "byId": {
        "harmHourly": {
          "title": "Harmonie precipitation, pressure and wind hourly",
          "componentType": "ModelRunInterval",
          "initialProps": {
            "layers": [
              {
                "service": "https://adaguc-server-geoweb.geoweb.knmi.cloud/adagucserver?dataset=HARM_N25",
                "name": "air_pressure_at_sea_level",
                "layerType": "mapLayer",
                "enabled": true
              },
              {
                "service": "https://adaguc-server-geoweb.geoweb.knmi.cloud/adagucserver?dataset=HARM_N25",
                "name": "wind__at_10m",
                "layerType": "mapLayer",
                "enabled": true
              },
              {
                "service": "https://adaguc-server-geoweb.geoweb.knmi.cloud/adagucserver?dataset=HARM_N25",
                "name": "precipitation_flux",
                "layerType": "mapLayer",
                "enabled": true
              }
            ],
            "syncGroupsIds": ["areaLayerGroupA", "layerGroupA"],
            "interval": 1
          }
        }
      }
    },
    "viewType": "tiledWindow",
    "syncGroups": [
      { "id": "areaLayerGroupA", "type": "SYNCGROUPS_TYPE_SETBBOX" },
      { "id": "timeLayerGroupA", "type": "SYNCGROUPS_TYPE_SETTIME" },
      { "id": "layerGroupA", "type": "SYNCGROUPS_TYPE_SETLAYERACTIONS" }
    ],
    "mosaicNode": "harmHourly"
  },
  {
    "id": "screenConfigHarmoniePrecipMSLRefTimePresetWithoutMultiMapLayerManager",
    "title": "Precipitation, pressure and wind 1:1",
    "views": {
      "allIds": ["screenRefTime"],
      "byId": {
        "screenRefTime": {
          "title": "Harmonie precipitation, pressure and wind",
          "componentType": "ModelRunInterval",
          "initialProps": {
            "layers": [
              {
                "service": "https://adaguc-server-geoweb.geoweb.knmi.cloud/adagucserver?dataset=HARM_N25",
                "name": "air_pressure_at_sea_level",
                "layerType": "mapLayer",
                "enabled": true
              },
              {
                "service": "https://adaguc-server-geoweb.geoweb.knmi.cloud/adagucserver?dataset=HARM_N25",
                "name": "wind__at_10m",
                "layerType": "mapLayer",
                "enabled": true
              },
              {
                "service": "https://adaguc-server-geoweb.geoweb.knmi.cloud/adagucserver?dataset=HARM_N25",
                "name": "precipitation_flux",
                "layerType": "mapLayer",
                "enabled": true
              }
            ],
            "syncGroupsIds": ["areaLayerGroupA", "layerGroupA"]
          }
        }
      }
    },
    "syncGroups": [
      { "id": "areaLayerGroupA", "type": "SYNCGROUPS_TYPE_SETBBOX" },
      { "id": "timeLayerGroupA", "type": "SYNCGROUPS_TYPE_SETTIME" },
      { "id": "layerGroupA", "type": "SYNCGROUPS_TYPE_SETLAYERACTIONS" }
    ],
    "viewType": "tiledWindow",
    "mosaicNode": "screenRefTime"
  },
  {
    "id": "screenConfigHarmoniePresetWithMultiMapLayerManager",
    "title": "Temperature and precipitation (run compare) 1:all",
    "views": {
      "allIds": ["screenHarmAll"],
      "byId": {
        "screenHarmAll": {
          "title": "Temperature and precipitation",
          "componentType": "HarmonieTempAndPrecipPreset",
          "initialProps": {
            "layers": {
              "topRow": {
                "service": "https://adaguc-server-geoweb.geoweb.knmi.cloud/adagucserver?dataset=HARM_N25",
                "name": "air_temperature__at_2m",
                "layerType": "mapLayer",
                "enabled": true
              },
              "bottomRow": {
                "service": "https://adaguc-server-geoweb.geoweb.knmi.cloud/adagucserver?dataset=HARM_N25",
                "name": "precipitation_flux",
                "layerType": "mapLayer",
                "enabled": true
              },
              "topRowSyncGroups": [
                "timeLayerGroupA",
                "areaLayerGroupA",
                "layerGroupA"
              ],
              "bottomRowSyncGroups": [
                "timeLayerGroupA",
                "areaLayerGroupA",
                "layerGroupB"
              ]
            }
          }
        }
      }
    },
    "syncGroups": [
      { "id": "areaLayerGroupA", "type": "SYNCGROUPS_TYPE_SETBBOX" },
      { "id": "timeLayerGroupA", "type": "SYNCGROUPS_TYPE_SETTIME" },
      { "id": "layerGroupA", "type": "SYNCGROUPS_TYPE_SETLAYERACTIONS" },
      { "id": "layerGroupB", "type": "SYNCGROUPS_TYPE_SETLAYERACTIONS" }
    ],
    "viewType": "tiledWindow",
    "mosaicNode": "screenHarmAll"
  },
  {
    "id": "screenConfigHarmoniePresetWithoutMultiMapLayerManager",
    "title": "Temperature and precipitation (run compare) 1:1",
    "views": {
      "allIds": ["screenHarm"],
      "byId": {
        "screenHarm": {
          "title": "Temperature and precipitation",
          "componentType": "HarmonieTempAndPrecipPreset",
          "initialProps": {
            "layers": {
              "topRow": {
                "service": "https://adaguc-server-geoweb.geoweb.knmi.cloud/adagucserver?dataset=HARM_N25",
                "name": "air_temperature__at_2m",
                "layerType": "mapLayer",
                "enabled": true
              },
              "bottomRow": {
                "service": "https://adaguc-server-geoweb.geoweb.knmi.cloud/adagucserver?dataset=HARM_N25",
                "name": "precipitation_flux",
                "layerType": "mapLayer",
                "enabled": true
              },
              "topRowSyncGroups": [
                "timeLayerGroupA",
                "areaLayerGroupA",
                "layerGroupA"
              ],
              "bottomRowSyncGroups": [
                "timeLayerGroupA",
                "areaLayerGroupA",
                "layerGroupB"
              ]
            }
          }
        }
      }
    },
    "syncGroups": [
      { "id": "areaLayerGroupA", "type": "SYNCGROUPS_TYPE_SETBBOX" },
      { "id": "timeLayerGroupA", "type": "SYNCGROUPS_TYPE_SETTIME" },
      { "id": "layerGroupA", "type": "SYNCGROUPS_TYPE_SETLAYERACTIONS" },
      { "id": "layerGroupB", "type": "SYNCGROUPS_TYPE_SETLAYERACTIONS" }
    ],
    "viewType": "tiledWindow",
    "mosaicNode": "screenHarm"
  },
  {
    "id": "RadarAndSatelliteScreenConfig",
    "title": "Radar and satellite",
    "views": {
      "byId": {
        "screenSat": {
          "title": "Compsat natural view",
          "componentType": "Map",
          "initialProps": {
            "mapPreset": {
              "layers": [
                {
                  "service": "https://adaguc-server-geoweb.geoweb.knmi.cloud/adagucserver?dataset=satcomp",
                  "name": "RSS_output_1km_hrv_comb",
                  "layerType": "mapLayer",
                  "enabled": true,
                  "style": "auto/rgba",
                  "id": "satcompHRVCombRSS"
                }
              ],
              "proj": {
                "bbox": {
                  "left": -7529663.50832266,
                  "bottom": 308359.5390525013,
                  "right": 7493930.85787452,
                  "top": 11742807.68245839
                },
                "srs": "EPSG:3857"
              },
              "shouldAutoUpdate": true,
              "shouldAnimate": true,
              "animationPayload": { "duration": 180, "interval": 15 }
            }
          }
        },
        "screenRadar": {
          "title": "Radar",
          "componentType": "Map",
          "initialProps": {
            "mapPreset": {
              "layers": [
                {
                  "service": "https://adaguc-server-geoweb.geoweb.knmi.cloud/adagucserver?dataset=RADAR",
                  "name": "precipitation",
                  "format": "image/png",
                  "enabled": true,
                  "style": "radar/nearest",
                  "layerType": "mapLayer"
                }
              ],
              "proj": {
                "srs": "EPSG:3857",
                "bbox": {
                  "left": -450651.2255879827,
                  "bottom": 6393842.957153378,
                  "right": 1428345.8183648037,
                  "top": 7342085.640241
                }
              },
              "shouldAutoUpdate": true,
              "shouldAnimate": true,
              "animationPayload": { "duration": 120, "interval": 5 }
            }
          }
        }
      },
      "allIds": ["screenSat", "screenRadar"]
    },
    "syncGroups": [
      { "id": "Area_SatRadar", "type": "SYNCGROUPS_TYPE_SETBBOX" },
      { "id": "Time_SatRadar", "type": "SYNCGROUPS_TYPE_SETTIME" }
    ],
    "viewType": "multiWindow",
    "mosaicNode": {
      "direction": "row",
      "first": "screenSat",
      "second": "screenRadar"
    }
  },
  {
    "id": "screenConfigOBS",
    "title": "Observations",
    "views": {
      "byId": {
        "map_OBSTA": {
          "title": "TA",
          "componentType": "Map",
          "initialProps": {
            "mapPreset": {
              "layers": [
                {
                  "service": "https://adaguc-server-geoweb.geoweb.knmi.cloud/adagucserver?dataset=OBS",
                  "name": "10M/ta",
                  "style": "temperaturealldisc/point",
                  "layerType": "mapLayer",
                  "enabled": true
                }
              ],
              "proj": {
                "srs": "EPSG:3857",
                "bbox": {
                  "left": -450651.2255879827,
                  "bottom": 6393842.957153378,
                  "right": 1428345.8183648037,
                  "top": 7342085.640241
                }
              },
              "shouldAutoUpdate": true
            },
            "syncGroupsIds": ["Area_A", "Time_A"]
          }
        },
        "map_OBSPP": {
          "title": "PP",
          "componentType": "Map",
          "initialProps": {
            "mapPreset": {
              "layers": [
                {
                  "service": "https://adaguc-server-geoweb.geoweb.knmi.cloud/adagucserver?dataset=OBS",
                  "name": "10M/pp",
                  "layerType": "mapLayer",
                  "enabled": true
                }
              ],
              "proj": {
                "srs": "EPSG:3857",
                "bbox": {
                  "left": -450651.2255879827,
                  "bottom": 6393842.957153378,
                  "right": 1428345.8183648037,
                  "top": 7342085.640241
                }
              },
              "shouldAutoUpdate": true
            },
            "syncGroupsIds": ["Area_A", "Time_A"]
          }
        },
        "map_OBSWind": {
          "title": "Wind",
          "componentType": "Map",
          "initialProps": {
            "mapPreset": {
              "layers": [
                {
                  "service": "https://adaguc-server-geoweb.geoweb.knmi.cloud/adagucserver?dataset=OBS",
                  "name": "10M/wind",
                  "layerType": "mapLayer",
                  "enabled": true
                }
              ],
              "proj": {
                "srs": "EPSG:3857",
                "bbox": {
                  "left": -450651.2255879827,
                  "bottom": 6393842.957153378,
                  "right": 1428345.8183648037,
                  "top": 7342085.640241
                }
              },
              "shouldAutoUpdate": true
            },
            "syncGroupsIds": ["Area_A", "Time_A"]
          }
        },
        "map_OBSRH": {
          "title": "RH",
          "componentType": "Map",
          "initialProps": {
            "mapPreset": {
              "layers": [
                {
                  "service": "https://adaguc-server-geoweb.geoweb.knmi.cloud/adagucserver?dataset=OBS",
                  "name": "10M/rh",
                  "layerType": "mapLayer",
                  "enabled": true
                }
              ],
              "proj": {
                "srs": "EPSG:3857",
                "bbox": {
                  "left": -450651.2255879827,
                  "bottom": 6393842.957153378,
                  "right": 1428345.8183648037,
                  "top": 7342085.640241
                }
              },
              "shouldAutoUpdate": true
            },
            "syncGroupsIds": ["Area_A", "Time_A"]
          }
        },
        "map_OBSQG": {
          "title": "QG",
          "componentType": "Map",
          "initialProps": {
            "mapPreset": {
              "layers": [
                {
                  "service": "https://adaguc-server-geoweb.geoweb.knmi.cloud/adagucserver?dataset=OBS",
                  "name": "10M/qg",
                  "layerType": "mapLayer",
                  "enabled": true
                }
              ],
              "proj": {
                "srs": "EPSG:3857",
                "bbox": {
                  "left": -450651.2255879827,
                  "bottom": 6393842.957153378,
                  "right": 1428345.8183648037,
                  "top": 7342085.640241
                }
              },
              "shouldAutoUpdate": true
            },
            "syncGroupsIds": ["Area_A", "Time_A"]
          }
        }
      },
      "allIds": [
        "map_OBSTA",
        "map_OBSPP",
        "map_OBSWind",
        "map_OBSRH",
        "map_OBSQG"
      ]
    },
    "syncGroups": [
      { "id": "Area_A", "type": "SYNCGROUPS_TYPE_SETBBOX" },
      { "id": "Time_A", "type": "SYNCGROUPS_TYPE_SETTIME" }
    ],
    "viewType": "multiWindow",
    "mosaicNode": {
      "direction": "column",
      "first": {
        "direction": "row",
        "first": "map_OBSTA",
        "second": "map_OBSPP"
      },
      "second": {
        "direction": "row",
        "first": "map_OBSWind",
        "second": {
          "direction": "row",
          "first": "map_OBSRH",
          "second": "map_OBSQG"
        },
        "splitPercentage": 33
      }
    }
  },
  {
    "id": "screenConfigBESSeismic",
    "title": "BES Dashboard",
    "views": {
      "byId": {
        "map_ECMWFWindWaves": {
          "title": "ECMWF Wind and Waves",
          "componentType": "Map",
          "initialProps": {
            "mapPreset": {
              "layers": [
                {
                  "service": "https://eccharts.ecmwf.int/wms/?token=knmi",
                  "name": "10m_uv",
                  "layerType": "mapLayer",
                  "style": "wind_blk_flag",
                  "enabled": true
                },
                {
                  "service": "https://eccharts.ecmwf.int/wms/?token=knmi",
                  "name": "wind_speed",
                  "layerType": "mapLayer",
                  "style": "sh_all_f03t70_beauf",
                  "enabled": true
                },
                {
                  "service": "https://eccharts.ecmwf.int/wms/?token=knmi",
                  "name": "10m_fg_interval",
                  "layerType": "mapLayer",
                  "style": "sh_all_f03t70_beauf",
                  "enabled": false,
                  "dimensions": [
                    {
                      "name": "interval",
                      "currentValue": "6"
                    }
                  ]
                },
                {
                  "service": "https://eccharts.ecmwf.int/wms/?token=knmi",
                  "name": "wave_sh10",
                  "layerType": "mapLayer",
                  "style": "sh_all_f0t20lst",
                  "enabled": false
                },
                {
                  "service": "https://eccharts.ecmwf.int/wms/?token=knmi",
                  "name": "wave_swh",
                  "layerType": "mapLayer",
                  "style": "sh_all_f0t20lst",
                  "enabled": false
                },
                {
                  "service": "https://eccharts.ecmwf.int/wms/?token=knmi",
                  "name": "tp_interval",
                  "layerType": "mapLayer",
                  "style": "sh_all_f05t300lst",
                  "enabled": false,
                  "dimensions": [
                    {
                      "name": "interval",
                      "currentValue": "0"
                    }
                  ]
                },
                {
                  "service": "https://eccharts.ecmwf.int/wms/?token=knmi",
                  "name": "lightning_density",
                  "layerType": "mapLayer",
                  "style": "sh_all_lightdensity1",
                  "enabled": false
                },
                {
                  "service": "https://eccharts.ecmwf.int/wms/?token=knmi",
                  "name": "2t",
                  "layerType": "mapLayer",
                  "style": "sh_all_fM48t56i4",
                  "enabled": false
                }
              ],
              "proj": {
                "srs": "EPSG:3857",
                "bbox": {
                  "left": -10935171.21653172,
                  "bottom": 593560.6948598919,
                  "right": -5246130.624166736,
                  "top": 3150740.351823522
                }
              },
              "shouldAutoUpdate": false
            },
            "syncGroupsIds": ["Time_A"]
          }
        },
        "map_seismicEvents": {
          "title": "BES Seismic Events and fault lines",
          "componentType": "Map",
          "initialProps": {
            "mapPreset": {
              "layers": [
                {
                  "service": "https://adaguc-server-geoweb.geoweb.knmi.cloud/adagucserver?dataset=OVL&",
                  "name": "stations_caribbean",
                  "layerType": "mapLayer",
                  "enabled": true
                },
                {
                  "service": "https://adaguc-server-geoweb.geoweb.knmi.cloud/adagucserver?dataset=BES_SEISMIC&",
                  "name": "usgs_earthquakes_age_magnitude",
                  "layerType": "mapLayer",
                  "enabled": true
                },
                {
                  "service": "https://adaguc-server-geoweb.geoweb.knmi.cloud/adagucserver?dataset=OVL&",
                  "name": "faultlines_caribbean",
                  "layerType": "mapLayer",
                  "enabled": true
                }
              ],
              "proj": {
                "srs": "EPSG:3857",
                "bbox": {
                  "left": -10935171.21653172,
                  "bottom": 593560.6948598919,
                  "right": -5246130.624166736,
                  "top": 3150740.351823522
                }
              },
              "shouldAutoUpdate": true,
              "showTimeSlider": false
            },
            "syncGroupsIds": []
          }
        },
        "map_GOES16": {
          "title": "GOES16 Satellite imagery",
          "componentType": "Map",
          "initialProps": {
            "mapPreset": {
              "layers": [
                {
                  "service": "https://eccharts.ecmwf.int/wms/?token=knmi",
                  "name": "tp_rate",
                  "layerType": "mapLayer",
                  "style": "tp_rate",
                  "enabled": true
                },
                {
                  "service": "https://adaguc-server-geoweb.geoweb.knmi.cloud/adagucserver?dataset=SAT&",
                  "name": "goes16-c13",
                  "layerType": "mapLayer",
                  "enabled": true,
                  "id": "goes16-c13"
                },
                {
                  "service": "https://adaguc-server-geoweb.geoweb.knmi.cloud/adagucserver?dataset=SAT&",
                  "name": "goes16-c14",
                  "layerType": "mapLayer",
                  "enabled": false
                }
              ],
              "proj": {
                "srs": "EPSG:3857",
                "bbox": {
                  "left": -10935171.21653172,
                  "bottom": 593560.6948598919,
                  "right": -5246130.624166736,
                  "top": 3150740.351823522
                }
              },
              "activeLayerId": "goes16-c13",
              "shouldAutoUpdate": true
            },
            "syncGroupsIds": ["Time_A"]
          }
        }
      },
      "allIds": ["map_ECMWFWindWaves", "map_seismicEvents", "map_GOES16"]
    },
    "syncGroups": [
      { "id": "Area_A", "type": "SYNCGROUPS_TYPE_SETBBOX" },
      { "id": "Time_A", "type": "SYNCGROUPS_TYPE_SETTIME" }
    ],
    "viewType": "multiWindow",
    "mosaicNode": {
      "direction": "row",
      "first": "map_ECMWFWindWaves",
      "second": {
        "first": "map_seismicEvents",
        "second": "map_GOES16",
        "direction": "column"
      }
    }
  },
  {
    "id": "screenConfigWOWDATA",
    "title": "WOW DATA",
    "views": {
      "byId": {
        "map_WOWDATA_air_temperature": {
          "title": "Air temperature",
          "componentType": "Map",
          "initialProps": {
            "mapPreset": {
              "layers": [
                {
                  "service": "https://adaguc-server-geoweb.geoweb.knmi.cloud/adagucserver?dataset=WOWDATA",
                  "name": "air_temperature",
                  "layerType": "mapLayer",
                  "enabled": true
                }
              ],
              "proj": {
                "srs": "EPSG:3857",
                "bbox": {
                  "left": -450651.2255879827,
                  "bottom": 6393842.957153378,
                  "right": 1428345.8183648037,
                  "top": 7342085.640241
                }
              },
              "shouldAutoUpdate": true
            },
            "syncGroupsIds": ["Area_A", "Time_A"]
          }
        },
        "map_WOWDATA_air_pressure": {
          "title": "Air pressure",
          "componentType": "Map",
          "initialProps": {
            "mapPreset": {
              "layers": [
                {
                  "service": "https://adaguc-server-geoweb.geoweb.knmi.cloud/adagucserver?dataset=WOWDATA",
                  "name": "air_pressure",
                  "layerType": "mapLayer",
                  "enabled": true
                }
              ],
              "proj": {
                "srs": "EPSG:3857",
                "bbox": {
                  "left": -450651.2255879827,
                  "bottom": 6393842.957153378,
                  "right": 1428345.8183648037,
                  "top": 7342085.640241
                }
              },
              "shouldAutoUpdate": true
            },
            "syncGroupsIds": ["Area_A", "Time_A"]
          }
        },
        "map_WOWDATA_wind": {
          "title": "Wind",
          "componentType": "Map",
          "initialProps": {
            "mapPreset": {
              "layers": [
                {
                  "service": "https://adaguc-server-geoweb.geoweb.knmi.cloud/adagucserver?dataset=WOWDATA",
                  "name": "wind",
                  "layerType": "mapLayer",
                  "enabled": true
                }
              ],
              "proj": {
                "srs": "EPSG:3857",
                "bbox": {
                  "left": -450651.2255879827,
                  "bottom": 6393842.957153378,
                  "right": 1428345.8183648037,
                  "top": 7342085.640241
                }
              },
              "shouldAutoUpdate": true
            },
            "syncGroupsIds": ["Area_A", "Time_A"]
          }
        },
        "map_WOWDATA_relative_humidity": {
          "title": "Relative humidity",
          "componentType": "Map",
          "initialProps": {
            "mapPreset": {
              "layers": [
                {
                  "service": "https://adaguc-server-geoweb.geoweb.knmi.cloud/adagucserver?dataset=WOWDATA",
                  "name": "relative_humidity",
                  "layerType": "mapLayer",
                  "enabled": true
                }
              ],
              "proj": {
                "srs": "EPSG:3857",
                "bbox": {
                  "left": -450651.2255879827,
                  "bottom": 6393842.957153378,
                  "right": 1428345.8183648037,
                  "top": 7342085.640241
                }
              },
              "shouldAutoUpdate": true
            },
            "syncGroupsIds": ["Area_A", "Time_A"]
          }
        },
        "map_WOWDATA_dew_point_temperature": {
          "title": "Dew point temperature",
          "componentType": "Map",
          "initialProps": {
            "mapPreset": {
              "layers": [
                {
                  "service": "https://adaguc-server-geoweb.geoweb.knmi.cloud/adagucserver?dataset=WOWDATA",
                  "name": "dew_point_temperature",
                  "layerType": "mapLayer",
                  "enabled": true
                }
              ],
              "proj": {
                "srs": "EPSG:3857",
                "bbox": {
                  "left": -450651.2255879827,
                  "bottom": 6393842.957153378,
                  "right": 1428345.8183648037,
                  "top": 7342085.640241
                }
              },
              "shouldAutoUpdate": true
            },
            "syncGroupsIds": ["Area_A", "Time_A"]
          }
        }
      },
      "allIds": [
        "map_WOWDATA_air_temperature",
        "map_WOWDATA_air_pressure",
        "map_WOWDATA_wind",
        "map_WOWDATA_relative_humidity",
        "map_WOWDATA_dew_point_temperature"
      ]
    },
    "syncGroups": [
      { "id": "Area_A", "type": "SYNCGROUPS_TYPE_SETBBOX" },
      { "id": "Time_A", "type": "SYNCGROUPS_TYPE_SETTIME" }
    ],
    "viewType": "multiWindow",
    "mosaicNode": {
      "direction": "column",
      "first": {
        "direction": "row",
        "first": "map_WOWDATA_air_temperature",
        "second": "map_WOWDATA_air_pressure"
      },
      "second": {
        "direction": "row",
        "first": "map_WOWDATA_wind",
        "second": {
          "direction": "row",
          "first": "map_WOWDATA_relative_humidity",
          "second": "map_WOWDATA_dew_point_temperature"
        },
        "splitPercentage": 33
      }
    }
  }
]
