[
  {
    "lat": 59.911491,
    "lon": 10.757933,
    "name": "Oslo"
  },
  {
    "lat": 69.649208,
    "lon": 18.955324,
    "name": "Tromsø"
  },
  {
    "lat": 60.192059,
    "lon": 24.945831,
    "name": "Helsinki"
  },
  {
    "lat": 52.377956,
    "lon": 4.89707,
    "name": "Amsterdam"
  }
]
