{
  "fileServerFolder": ".",
  "fixturesFolder": "./src/fixtures",
  "integrationFolder": "./src/integration",
  "modifyObstructiveCode": false,
  "pluginsFile": false,
  "supportFile": "./src/support/commands.ts",
  "video": false,
  "videosFolder": "../../dist/cypress/apps/geoweb-e2e/videos",
  "screenshotsFolder": "../../dist/cypress/apps/geoweb-e2e/screenshots",
  "chromeWebSecurity": false,
  "defaultCommandTimeout": 30000,
  "requestTimeout": 30000
}
