{
  "root": "libs/timeseries",
  "sourceRoot": "libs/timeseries/src",
  "projectType": "library",
  "targets": {
    "lint": {
      "executor": "@nrwl/linter:eslint",
      "options": {
        "lintFilePatterns": ["libs/timeseries/**/*.{ts,tsx,js,jsx}"]
      }
    },
    "build": {
      "executor": "@nrwl/web:rollup",
      "options": {
        "outputPath": "dist/libs/timeseries",
        "tsConfig": "libs/timeseries/tsconfig.lib.json",
        "project": "libs/timeseries/package.json",
        "entryFile": "libs/timeseries/src/index.ts",
        "buildableProjectDepsInPackageJsonType": "dependencies",
        "rollupConfig": "@nrwl/react/plugins/bundle-rollup",
        "assets": [
          {
            "glob": "README.md",
            "input": "./libs/timeseries",
            "output": "."
          }
        ]
      },
      "outputs": ["{options.outputPath}"]
    },
    "test": {
      "executor": "@nrwl/jest:jest",
      "outputs": ["coverage/libs/timeseries"],
      "options": {
        "jestConfig": "libs/timeseries/jest.config.js",
        "passWithNoTests": true,
        "codeCoverage": true
      }
    },
    "storybook": {
      "executor": "@nrwl/storybook:storybook",
      "options": {
        "uiFramework": "@storybook/react",
        "port": 5300,
        "config": {
          "configFolder": "libs/timeseries/.storybook"
        }
      },
      "configurations": {
        "ci": {
          "quiet": true
        }
      }
    },
    "build-storybook": {
      "executor": "@nrwl/storybook:build",
      "outputs": ["{options.outputPath}"],
      "options": {
        "uiFramework": "@storybook/react",
        "outputPath": "dist/storybook/timeseries",
        "config": {
          "configFolder": "libs/timeseries/.storybook"
        }
      },
      "configurations": {
        "ci": {
          "quiet": true
        }
      }
    },
    "typecheck": {
      "executor": "@nrwl/workspace:run-commands",
      "options": {
        "command": "tsc -p libs/timeseries/tsconfig.lib.json"
      }
    },
    "docs": {
      "executor": "@nrwl/workspace:run-commands",
      "options": {
        "command": "npx typedoc --out docs/timeseries libs/timeseries/src/index.ts --tsconfig libs/timeseries/tsconfig.lib.json"
      }
    }
  },
  "tags": ["scope:shared"]
}
