{
  "location_indicator_mwo": "EHDB",
  "firareas": {
    "EHAA": {
      "firname": "AMSTERDAM FIR",
      "location_indicator_atsr": "EHAA",
      "location_indicator_atsu": "EHAA",
      "maxhoursofvalidity": 4,
      "hoursbeforevalidity": 4,
      "units": [
        {
          "unit_type": "level_unit",
          "allowed_units": ["FT", "FL"]
        },
        {
          "unit_type": "movement_unit",
          "allowed_units": ["KT"]
        },
        {
          "unit_type": "surfacewind_unit",
          "allowed_units": ["KT"]
        },
        {
          "unit_type": "cloud_level_unit",
          "allowed_units": ["FT"]
        }
      ]
    }
  },
  "active_firs": ["EHAA"]
}
