{
  "sequence": "A03",
  "issueDate": "2020-09-18T12:00:00Z",
  "validDateStart": "2020-09-18T13:00:00Z",
  "validDateEnd": "2020-09-18T17:00:00Z",
  "firName": "AMSTERDAM FIR",
  "locationIndicatorMWO": "EHDB",
  "locationIndicatorATSU": "EHAA",
  "locationIndicatorATSR": "EHAA",
  "type": "NORMAL",
  "status": "PUBLISHED",
  "cancelsSigmetSequenceId": "A01",
  "validDateStartOfSigmetToCancel": "2020-09-18T14:00:00Z",
  "validDateEndOfSigmetToCancel": "2020-09-18T15:00:00Z"
}
